{
    "titles": ["INF. DE CONTACTO", "ENVIAR MENSAJE"],
    "contactMed": ["Juramento 2089 OF.701/703", "INFO@DENTALPRO.COM", "4838-7210 / 11 3017-2090"],
    "messageLabels": ["NOMBRE", "APELLIDO", "CORREO", "ASUNTO", "MENSAJE"],
    "messageSendButton": "ENVIAR"
}